<?xml version="1.0" encoding="UTF-8"?>
<svg width="103px" height="70px" viewBox="0 0 103 70" version="1.1" xmlns="http://www.w3.org/2000/svg" xmlns:xlink="http://www.w3.org/1999/xlink">
    <!-- Generator: Sketch 43.2 (39069) - http://www.bohemiancoding.com/sketch -->
    <title>Group</title>
    <desc>Created with Sketch.</desc>
    <defs></defs>
    <g id="Page-1" stroke="none" stroke-width="1" fill="none" fill-rule="evenodd">
        <g id="UR-Logo-Stacked-reversed" fill="#FFFFFF">
            <g id="Group">
                <path d="M54.5,63.2 C59.7,66.2 65.7,67.9 72.1,67.9 C88.1,67.9 102.7,55.3 102.7,35.8 C102.7,16.3 86.9,0.5 67.4,0.5 L32.2,0.5 C51.7,0.5 67.5,16.3 67.5,35.8 C67.5,48.8 60.4,58.6 54.5,63.2 L54.5,63.2 Z" id="Path"></path>
                <path d="M48.2,6.8 C43,3.8 37,2.1 30.6,2.1 C14.6,2.1 0,14.7 0,34.2 C0,53.7 15.8,69.5 35.3,69.5 L70.6,69.5 C51.1,69.5 35.3,53.7 35.3,34.2 C35.3,21.2 42.3,11.4 48.2,6.8" id="Shape" fill-rule="nonzero"></path>
            </g>
        </g>
    </g>
</svg>