<svg data-name="gears" xmlns="http://www.w3.org/2000/svg" viewBox="0 0 36 36">
  <path fill="#FFFFFF" d="M18 36a18 18 0 1 1 18-18 18.02 18.02 0 0 1-18 18zM18 .654A17.346 17.346 0 1 0 35.346 18 17.366 17.366 0 0 0 18 .654zm-.818 29.407a.336.336 0 0 1-.051-.004 5.674 5.674 0 0 1-.85-.216.326.326 0 0 1-.225-.292 8.222 8.222 0 0 1 .028-1.278c-.1-.053-.199-.11-.298-.168l-.106-.071c-.067-.045-.134-.09-.198-.137a7.185 7.185 0 0 1-1.215.535.332.332 0 0 1-.336-.08 5.463 5.463 0 0 1-.56-.677.326.326 0 0 1-.007-.37 8.108 8.108 0 0 1 .772-1.013c-.053-.106-.102-.214-.144-.325a2.476 2.476 0 0 1-.12-.332 7.314 7.314 0 0 1-1.301-.28.328.328 0 0 1-.225-.27 5.677 5.677 0 0 1-.053-.878.329.329 0 0 1 .206-.296 7.89 7.89 0 0 1 1.226-.365l.03-.151.097-.388.044-.15a6.948 6.948 0 0 1-.886-.99.325.325 0 0 1-.027-.34 5.743 5.743 0 0 1 .413-.67l.049-.07a.325.325 0 0 1 .355-.132 8.445 8.445 0 0 1 1.207.426 2.426 2.426 0 0 1 .275-.246 2.866 2.866 0 0 1 .268-.21 7.473 7.473 0 0 1-.136-1.32.327.327 0 0 1 .194-.305 6.04 6.04 0 0 1 .814-.316.329.329 0 0 1 .341.106 7.679 7.679 0 0 1 .729 1.049c.073-.01.147-.019.22-.026l.114-.012a3.576 3.576 0 0 1 .376-.01 7.267 7.267 0 0 1 .665-1.148.319.319 0 0 1 .319-.132 5.58 5.58 0 0 1 .849.216.327.327 0 0 1 .225.29 8.056 8.056 0 0 1-.029 1.28c.1.053.198.11.297.166l.123.082c.062.042.124.084.184.127a7.25 7.25 0 0 1 1.215-.534.323.323 0 0 1 .336.08 5.568 5.568 0 0 1 .56.677.327.327 0 0 1 .007.37 8.466 8.466 0 0 1-.772 1.014c.053.105.101.213.144.323a2.505 2.505 0 0 1 .12.333 7.219 7.219 0 0 1 1.3.281.326.326 0 0 1 .224.265 5.485 5.485 0 0 1 .056.88.328.328 0 0 1-.207.298 7.678 7.678 0 0 1-1.227.366c-.008.048-.018.095-.028.142l-.035.176a.327.327 0 0 1-.012.05l-.05.169-.046.152a6.829 6.829 0 0 1 .886.99.327.327 0 0 1 .029.338 5.823 5.823 0 0 1-.429.692.405.405 0 0 1-.388.18 8.45 8.45 0 0 1-1.21-.424 2.373 2.373 0 0 1-.272.246 2.897 2.897 0 0 1-.27.21 7.485 7.485 0 0 1 .137 1.318.327.327 0 0 1-.196.306 6.276 6.276 0 0 1-.812.318.328.328 0 0 1-.341-.107 7.759 7.759 0 0 1-.728-1.05c-.073.01-.147.019-.22.027l-.114.012c-.134.006-.266.011-.377.01a7.107 7.107 0 0 1-.668 1.147.328.328 0 0 1-.265.136zm-.484-.774c.105.03.219.061.337.087a6.675 6.675 0 0 0 .571-1.059.328.328 0 0 1 .324-.197 3.99 3.99 0 0 0 .51-.001l.098-.011a2.54 2.54 0 0 0 .378-.057.33.33 0 0 1 .368.161 7.245 7.245 0 0 0 .635.98c.11-.04.217-.084.323-.13a6.296 6.296 0 0 0-.16-1.188.326.326 0 0 1 .142-.35 3.327 3.327 0 0 0 .4-.295 2.12 2.12 0 0 0 .252-.231l.137-.137a.327.327 0 0 1 .365-.058 7.723 7.723 0 0 0 1.087.418c.07-.103.134-.199.19-.295a6.358 6.358 0 0 0-.833-.87.327.327 0 0 1-.082-.383 1.973 1.973 0 0 0 .097-.29c.016-.058.033-.115.052-.172.01-.06.022-.119.035-.179a1.956 1.956 0 0 0 .049-.3.327.327 0 0 1 .266-.303 7.588 7.588 0 0 0 1.131-.3c-.003-.115-.01-.232-.022-.35a6.695 6.695 0 0 0-1.18-.217.327.327 0 0 1-.28-.22l-.06-.187a2.106 2.106 0 0 0-.103-.297 3.632 3.632 0 0 0-.227-.471.326.326 0 0 1 .05-.386 7.159 7.159 0 0 0 .732-.907c-.075-.097-.148-.186-.22-.267a6.333 6.333 0 0 0-1.086.52.328.328 0 0 1-.388-.038 2.518 2.518 0 0 0-.299-.221l-.108-.074a4.717 4.717 0 0 0-.43-.226.326.326 0 0 1-.193-.34 7.559 7.559 0 0 0 .062-1.167c-.122-.036-.232-.064-.337-.087a6.774 6.774 0 0 0-.57 1.06.32.32 0 0 1-.322.196 4.864 4.864 0 0 0-.513.001l-.096.012a2.54 2.54 0 0 0-.378.056.328.328 0 0 1-.368-.16 7.157 7.157 0 0 0-.637-.981c-.107.039-.214.083-.323.13a6.276 6.276 0 0 0 .16 1.188.327.327 0 0 1-.141.351 3.077 3.077 0 0 0-.4.294 2.328 2.328 0 0 0-.252.23l-.14.14a.328.328 0 0 1-.365.056 7.685 7.685 0 0 0-1.084-.418c-.066.097-.13.195-.19.295a6.466 6.466 0 0 0 .832.87.326.326 0 0 1 .083.38 2.273 2.273 0 0 0-.097.292c-.019.066-.038.132-.06.198l-.025.145a2.194 2.194 0 0 0-.051.31.327.327 0 0 1-.266.302 7.547 7.547 0 0 0-1.131.3c.003.113.01.23.023.35a6.71 6.71 0 0 0 1.18.217.327.327 0 0 1 .28.22l.06.188a2.054 2.054 0 0 0 .103.295 3.51 3.51 0 0 0 .227.473.326.326 0 0 1-.05.386 7.057 7.057 0 0 0-.734.906c.076.098.149.187.22.268a6.27 6.27 0 0 0 1.085-.52.328.328 0 0 1 .388.035 2.884 2.884 0 0 0 .314.232l.094.063a4.569 4.569 0 0 0 .433.23.326.326 0 0 1 .19.34 7.693 7.693 0 0 0-.062 1.165zm5.508-4zm-4.05.82a1.824 1.824 0 1 1 .453-.057 1.857 1.857 0 0 1-.453.057zm.004-2.994a1.17 1.17 0 1 0 .596.164 1.171 1.171 0 0 0-.596-.164zm9.324.888a.33.33 0 0 1-.115-.021.327.327 0 0 1-.212-.306v-3.077h-2.874a.327.327 0 0 1 0-.654h3.2a.327.327 0 0 1 .328.327v2.533l3.898-4.47-3.898-5.053v2.804a.327.327 0 0 1-.327.327h-3.201a.327.327 0 0 1 0-.653h2.874v-3.436a.327.327 0 0 1 .585-.2l4.647 6.025a.327.327 0 0 1-.012.415l-4.647 5.327a.327.327 0 0 1-.246.112zm-15.702-3.416h-5.52a.327.327 0 0 1 0-.654h5.52a.327.327 0 1 1 0 .654zm0-2.026h-5.52a.327.327 0 0 1 0-.654h5.52a.327.327 0 1 1 0 .654zm6.072-.65h-.014a5.705 5.705 0 0 1-.869-.113.326.326 0 0 1-.258-.262 8.224 8.224 0 0 1-.126-1.27c-.107-.041-.213-.086-.318-.132l-.11-.056c-.073-.036-.145-.073-.216-.112a7.192 7.192 0 0 1-1.142.679.331.331 0 0 1-.343-.04 5.441 5.441 0 0 1-.637-.602.327.327 0 0 1-.054-.366 8.177 8.177 0 0 1 .644-1.1 3.306 3.306 0 0 1-.183-.307 2.211 2.211 0 0 1-.16-.313h-.002a7.33 7.33 0 0 1-1.323-.12.326.326 0 0 1-.256-.238 5.588 5.588 0 0 1-.16-.865.327.327 0 0 1 .168-.32 7.687 7.687 0 0 1 1.173-.514l.012-.157.047-.385.028-.162a6.872 6.872 0 0 1-1-.874.328.328 0 0 1-.07-.331 5.43 5.43 0 0 1 .347-.75.392.392 0 0 1 .358-.218 8.4 8.4 0 0 1 1.25.274 2.411 2.411 0 0 1 .242-.277 3.396 3.396 0 0 1 .241-.241 7.317 7.317 0 0 1-.295-1.294.327.327 0 0 1 .156-.327 6.092 6.092 0 0 1 .769-.412.326.326 0 0 1 .35.064 7.59 7.59 0 0 1 .852.953c.072-.02.144-.036.217-.053l.11-.025c.13-.022.251-.042.37-.057a7.133 7.133 0 0 1 .525-1.221.332.332 0 0 1 .299-.169 5.768 5.768 0 0 1 .868.111.327.327 0 0 1 .26.263 8.226 8.226 0 0 1 .126 1.272c.105.039.209.083.312.127l.143.072c.064.033.128.065.19.1a7.102 7.102 0 0 1 1.14-.679.325.325 0 0 1 .344.039 5.559 5.559 0 0 1 .637.604.327.327 0 0 1 .054.365 8.187 8.187 0 0 1-.644 1.1c.065.098.126.198.183.303a2.407 2.407 0 0 1 .159.317h.004a7.2 7.2 0 0 1 1.322.12.326.326 0 0 1 .255.237 5.555 5.555 0 0 1 .16.868.328.328 0 0 1-.168.32 7.906 7.906 0 0 1-1.172.511l-.01.136c-.006.061-.012.123-.013.185a.368.368 0 0 1-.008.055c-.012.06-.022.122-.031.183l-.024.146a6.923 6.923 0 0 1 1 .875.33.33 0 0 1 .069.331 5.788 5.788 0 0 1-.366.786.338.338 0 0 1-.34.18 8.562 8.562 0 0 1-1.25-.274 2.347 2.347 0 0 1-.24.277 3.146 3.146 0 0 1-.243.242 7.522 7.522 0 0 1 .297 1.291.326.326 0 0 1-.155.328 6.048 6.048 0 0 1-.771.414.327.327 0 0 1-.351-.064 7.815 7.815 0 0 1-.851-.953c-.073.02-.146.037-.22.054l-.107.025c-.13.022-.252.042-.372.056a7.08 7.08 0 0 1-.523 1.221.327.327 0 0 1-.286.17zm-.535-.713c.124.02.237.036.345.046a6.571 6.571 0 0 0 .438-1.121.327.327 0 0 1 .299-.235 4.09 4.09 0 0 0 .504-.063l.09-.022a2.59 2.59 0 0 0 .373-.104.326.326 0 0 1 .386.116 7.136 7.136 0 0 0 .751.895c.102-.05.202-.108.304-.168a6.322 6.322 0 0 0-.304-1.16.326.326 0 0 1 .099-.365 3.492 3.492 0 0 0 .363-.343 2.17 2.17 0 0 0 .223-.262l.114-.147a.328.328 0 0 1 .356-.103 7.835 7.835 0 0 0 1.131.282c.056-.108.107-.212.152-.317a6.402 6.402 0 0 0-.931-.762.326.326 0 0 1-.13-.366 2.112 2.112 0 0 0 .06-.294c.01-.062.02-.125.032-.187.003-.063.008-.127.014-.19A2.108 2.108 0 0 0 22 12.03a.326.326 0 0 1 .227-.331 7.654 7.654 0 0 0 1.086-.436c-.018-.115-.04-.23-.065-.346a6.944 6.944 0 0 0-1.2-.07h-.01a.328.328 0 0 1-.294-.186l-.078-.172a2.184 2.184 0 0 0-.142-.287 3.432 3.432 0 0 0-.28-.438.327.327 0 0 1 0-.392 6.986 6.986 0 0 0 .617-.988c-.087-.089-.17-.168-.251-.24a6.35 6.35 0 0 0-1.016.65.33.33 0 0 1-.39.008 2.464 2.464 0 0 0-.315-.179l-.125-.064a4.62 4.62 0 0 0-.451-.17.326.326 0 0 1-.234-.315 7.582 7.582 0 0 0-.082-1.165c-.123-.02-.237-.036-.344-.046a6.668 6.668 0 0 0-.44 1.121.328.328 0 0 1-.295.234 4.517 4.517 0 0 0-.506.065l-.095.022a2.546 2.546 0 0 0-.368.103.327.327 0 0 1-.386-.116 7.047 7.047 0 0 0-.75-.896c-.105.052-.206.11-.306.169a6.223 6.223 0 0 0 .304 1.159.325.325 0 0 1-.097.365 3.436 3.436 0 0 0-.363.343 2.171 2.171 0 0 0-.223.262l-.118.149a.328.328 0 0 1-.354.102 7.692 7.692 0 0 0-1.13-.282c-.057.112-.108.215-.153.317a6.432 6.432 0 0 0 .934.762.327.327 0 0 1 .128.367 2.336 2.336 0 0 0-.063.31l-.041.338a2.145 2.145 0 0 0-.013.318.326.326 0 0 1-.228.331 7.429 7.429 0 0 0-1.085.437c.016.112.038.227.065.345a6.969 6.969 0 0 0 1.198.07.357.357 0 0 1 .303.184l.08.176a1.949 1.949 0 0 0 .14.282 3.421 3.421 0 0 0 .284.443.326.326 0 0 1 0 .39 6.968 6.968 0 0 0-.62.988c.088.089.17.168.252.24a6.329 6.329 0 0 0 1.014-.65.327.327 0 0 1 .39-.01 2.804 2.804 0 0 0 .34.192l.099.05a4.374 4.374 0 0 0 .455.175.327.327 0 0 1 .233.314 7.74 7.74 0 0 0 .081 1.164zm4.98-4.64zm-10.517 3.976h-5.52a.327.327 0 0 1 0-.653h5.52a.327.327 0 1 1 0 .653zm6.377-2.656a1.826 1.826 0 1 1 .662-.125 1.819 1.819 0 0 1-.662.125zm.002-2.994a1.17 1.17 0 0 0-.472 2.24 1.168 1.168 0 0 0 1.54-.6 1.169 1.169 0 0 0-1.068-1.64z"/>
</svg>
