{
  "GR": {
    "name":"General Equipment & Tools",
    "url":"equipment-tool-rentals",
    "typeMap":"GR"
  },
  "AR":{
    "name":"Aerial Equipment",
    "url":"aerial-lift-rentals",
    "typeMap":"AE"
  },
  "FS": {
    "name":"Fluid Solutions",
    "url":"fluid-solutions-pumps-tanks-filtration",
    "typeMap":"FS"
  },
  "IR": {
    "name":"Industrial",
    "url":"equipment-tool-rentals",
    "typeMap":"HM"
  },
  "PR": {
    "name":"Power & HVAC",
    "url":"power-hvac-rentals",
    "typeMap":"PH"
  },
  "SS": {
    "name":"Reliable Onsite Services",
    "url":"portable-toilet-rentals",
    "typeMap":"SS"
  },
  "TR": {
    "name":"Trench Safety",
    "url":"trench-safety-rentals",
    "typeMap":"TS"
  }
}